*** Life<FredkinCell> 11x33 ***

Generation = 0, Population = 149.
-0--00-0-0-000--0-0---0--0-------
--00-00----0-0-0000------00---0-0
-000000---0--000---0-000-00-00-00
-----0-0-0-00-0-00-0-------00--0-
0--0-0-0----0--0-0--0-000000-0--0
-00----0--0--00-000--00--0000-0-0
0------------0------0---0-0-----0
-000-0----0-----0-0--00-00---00--
----00-000----000---00-0--00--0-0
0-0-------0----0--00-----0-0000-0
0-0-0-0--0----0----00-----000--0-

Generation = 3, Population = 188.
0001----0--11-20----0-0-2-1-110-2
120---00-0--2-0---1---0-2-00-012-
0133--1-0-0--01---------1-0-11010
0--0-0230--1123-3---001-0121--2-0
0-00-3110---11---1-0-----33--0-0-
2--01-0----01-10------1-2---30-10
0---10--11012111----02-011--2--03
--012--02-001201-1-00-1---0-230-1
-00---11-1--10--1-0---2-0--1-21--
--1-12-0--1-11010030-01--01130-21
-0---10-0--1--0--111-0-11--10---1

Generation = 6, Population = 180.
-33--1--0-24----3-310--03-2-2-00-
-2-00---0-1-3-0--01--2-1----1--3-
-2-40-1--010-14-210-2----2-244-21
-1000----2-2--3-4-1-30------1-3-3
0011241411-0-1--0-011-002-4--12-2
2-301----2004-21121-23-032014-04-
1--1-3-0-11-2-2-01-00-1-4--0-3---
0---3-11---1-----20-10--120-2--32
-3--3--4--10--1-421-30--1---1--0-
--21231-----22-------1-1----4-25-
20--12-0--12-0-11---2----0-1-01--

*** Life<FredkinCell> 27x16 ***

Generation = 0, Population = 120.
0--0---0------0-
0---00--00-0----
0-000--0-0--0---
0------0-------0
---0-0---0---0--
-0-----0------00
00-000-0-----0--
0---0-----------
0-0-----------0-
---------0---0--
--0-0-0-0----000
0-----00--------
-------0---00-00
0--0000--00-----
-0-----000------
-----0--0-------
------00--------
--000--0---0----
00-0----------00
-------------0--
---00-0-0-000---
---00----------0
00-0--0-----0---
-0-000---0----0-
----0--0-----0--
0-----00-0-00-0-
0--00---0--0---0

Generation = 8, Population = 205.
-21-02-02-33-101
0023--3221--245-
-2--11---246--43
-------441------
1-3-11---3-1-30-
---3-1-30--1---3
0-2---3-----1423
--1--12-----0---
2--53-2-2-----1-
3301---110-0---1
-3---03----1---8
------411----10-
---4-2-22--2---3
32--0-222--42021
31--3-26-0--20--
---2-2---2---20-
--1-5--2-----0-6
5-3-4-23--3---23
2-3--4512-6--03-
3----134---0----
1--1---11--1221-
--3-60---40---5-
31-1-44----3015-
-21-442-3-311043
0322-0-2---0---2
52210--32-114313
-51-3--0-12--201

Generation = 16, Population = 207.
646---203--7-22-
2-67-2--4---5-8-
263125-6-47-34--
52----0--2---82-
-04--2-1-4153-14
32261--5--------
--4---74--2----4
34-1-6---27-2---
-255-0------3---
3--5-352-2-33--5
--45243-15-3-31+
4-------232---55
246454--5--59--5
---------1---3--
6--3513-54----53
-7-4332-7--3--1-
-3----4-331-3-5-
+------74-5--147
-+----64589---94
35-4---9-----2-4
5252-----4-16-76
--377-----6-5662
5432-66-3-44-286
--1-7--6377-3--4
2-34----6-5-6-3-
-----48-82---63-
-87652-4--2---4-

*** Life<FredkinCell> 41x50 ***

Generation = 0, Population = 27.
------0---------------------0---------------------
------------------------0-----0-------------------
-------------------0------------------------------
--------------------------------------------------
--------------------------------------------------
----------------------------0-0-------------------
----------------------0---------------------------
--------------------------------------------------
--------------------------------------------------
-----------------------0--------------------------
------------------------------------------0-------
-------------------------------0------------------
--------------------------------------------------
------------------------------------0-------------
----------------------0---------------------------
--------------------------------------------------
----------------0---------------------------------
-----------------0--------------------------------
------0---------------------------------0---------
--------------------------------------------------
----------------------0---------------------------
--------------------------------------------------
--------------------------------------------------
--------------------------------------------------
--------------------------------------------------
-------------------0------------------------------
------------------------0-------------------------
----------------------------------0---------------
--------------------------------------------------
--------------------------------------------------
--------------------------------------------------
--------------------------------------------------
----0---0----------------------------------------0
--------------------------------------------------
-0------------------------------------------------
--------------------------------------------------
--------------------------------------------------
--------------------------------------------------
-----0--------------------------------------------
--------------------------------------------------
------------------------------------------------0-

Generation = 1, Population = 98.
-----0-0----------------0--0-00-------------------
------0------------0---0-0--00-0------------------
------------------0-0---0-----0-------------------
-------------------0------------------------------
----------------------------0-0-------------------
----------------------0----0---0------------------
---------------------0-0----0-0-------------------
----------------------0---------------------------
-----------------------0--------------------------
----------------------0-0-----------------0-------
-----------------------0-------0---------0-0------
------------------------------0-0---------0-------
-------------------------------0----0-------------
----------------------0------------0-0------------
---------------------0-0------------0-------------
----------------0-----0---------------------------
---------------0----------------------------------
------0-----------0---------------------0---------
-----0-0---------0---------------------0-0--------
------0---------------0-----------------0---------
---------------------0-0--------------------------
----------------------0---------------------------
--------------------------------------------------
--------------------------------------------------
-------------------0------------------------------
------------------0-0---0-------------------------
-------------------0---0-0--------0---------------
------------------------0--------0-0--------------
----------------------------------0---------------
--------------------------------------------------
--------------------------------------------------
----0---0----------------------------------------0
---0-0-0-0--------------------------------------0-
-0--0---0----------------------------------------0
0-0-----------------------------------------------
-0------------------------------------------------
--------------------------------------------------
-----0--------------------------------------------
----0-0-------------------------------------------
-----0------------------------------------------0-
-----------------------------------------------0-0

Generation = 2, Population = 100.
----0-0-0----------0------0-0-1-------------------
----------------------0---0-1---0-----------------
------0----------0---0------0---------------------
------------------------0---0---------------------
-------------------0--0---------------------------
--------------------------0-0-0-0-----------------
--------------------0---0-------------------------
-----------------------0----0-0-------------------
----------------------0-------------------0-------
---------------------0---0-----0------------------
----------------------------------------0---0-----
-----------------------0-----0---0--0-------------
----------------------0-------------------0-------
-------------------------------0--0---0-----------
----------------0---0---0-------------------------
-----------------0------------------0-------------
------0-------0---0---0-----------------0---------
---------------0---0------------------------------
----0---0-------0-----0---------------0---0-------
-----------------0--------------------------------
------0-------------0---0---------------0---------
--------------------------------------------------
----------------------0---------------------------
-------------------0------------------------------
------------------------0-------------------------
-----------------0---0------------0---------------
----------------------0---0-----------------------
-------------------0------------0---0-------------
------------------------0-------------------------
----------------------------------0---------------
----0---0----------------------------------------0
--------------------------------------------------
-00-------0------------------------------------0-0
--------------------------------------------------
---00---0----------------------------------------0
--------------------------------------------------
-0---0--------------------------------------------
--------------------------------------------------
---0---0----------------------------------------0-
--------------------------------------------------
-----0----------------------------------------0-0-

Generation = 3, Population = 297.
---0-----0--------0-0-0--01-1--00-----------------
----0---0--------0-0---0-01--000-0----------------
-----0-0--------0-0-0---0-00-0--0-----------------
------0----------0-0-000-0-010--------------------
------------------0-00-00-0---0-0-----------------
-------------------00-0-00-------0----------------
-------------------0-0---00-----0-----------------
--------------------0------0---0----------0-------
-------------------------0--0-00---------0-0------
--------------------0---0-0---0-0-------0-0-0-----
---------------------0-0-0---0-0-0--0--0-0-0-0----
------------------------0---0-0-0-00-0--0-0-0-----
---------------------0-------0-0-00-0-0--0-0------
----------------0---0-0-0-----0-00-0-0-0--0-------
---------------0---0-0-0-0-----0--0-0-0-----------
------0-------0-----0-0-0----------0-0--0---------
-----0-0-----0-------0-0------------0--0-0--------
----0-0-0-----------0-----------------0-0-0-------
---0-0-0-0---------0-0-0-------------0-0-0-0------
----0-0-0---------0-0-0-0-------------0-0-0-------
-----0-0---------0-0-0-0-0-------------0-0--------
------0-------------0-0-0---------------0---------
-------------------0-0-0--------------------------
------------------0-0-0-0-------------------------
-----------------0-0-0-0-0--------0---------------
----------------0-0-0---0-0------0-0--------------
-----------------0-0---0-0-0----0-0-0-------------
------------------0-0-0-0-0----0-0-0-0------------
-------------------0---0-0------0-0-0-------------
----0---0---------------0--------0-0-------------0
---0-0-0-0------------------------0-------------0-
-00-0---0-0------------------------------------0--
0110-----0-0----------------------------------0---
-0000---0-0------------------------------------0--
--0110-0-0--------------------------------------0-
-0-000--0----------------------------------------0
0-0-0-0-------------------------------------------
-0-0-0-0----------------------------------------0-
--0-0-0-0--------------------------------------0-0
---0-0-0--------------------------------------0---
----0-0--------------------------------------0---0

Generation = 4, Population = 96.
--0-------0--------0----0-------1-----------------
--------------------0---0-2-------0---------------
------0--------0------00----0---------------------
--------------------------------------------------
------0---------------------0---------------------
-----------------------0--0---0-0-0---------------
------------------01------1---------------0-------
-------------------------------1------------------
--------------------------------------------------
-------------------0-------00-1-----0-------------
--------------------------------------0-------0---
---------------------------0-------1--------------
----------------0---------------------------------
-----------------0-----0--------1-------0---------
------0-----------0-------0-------------0-0-------
-------------------------------0------------------
------------0-------0-0---------------------------
-------------0-------0--------------0-------------
--0-------0-----------0-------------0-------0-----
--------------------------------------------------
----------------0-0-------0-----------------------
-----------------0-0------------------------------
------0-----------------0---------------0---------
----------------------------------0---------------
----------------------0---------------------------
---------------0-------0--------------------------
--------------------0-------0---------------------
------------------------------0-------0-----------
----0---0----------------------------------------0
-------------------0------------------------------
-0----------------------0-------------------------
----------------------------------0---------------
1---0---0---0--------------------------------0-0--
--------------------------------------------------
-0------------------------------------------------
--------------------------------------------------
----1---0---------------------------------------00
--------------------------------------------------
---------0--------------------------------------0-
--------------------------------------------------
-----0--------------------------------------0---0-

Generation = 5, Population = 311.
-0-0-----0-0------0----0101----0-00---------------
--0---0---0----0-----00-1--01---00-0--------------
-----0-0------0-0---0011--00-0----0---------------
---------------0------00--------------------------
-----0-0---------------0--00-00-0-0---------------
------0-----------00--0-001000-----0------0-------
-----------------0120--0-020--000-0------0-0------
------------------00------0---0-0---------0-------
-------------------0-------00-00----0-------------
------------------0-0-----011--0---0-00-------0---
-------------------0--------0-0----000-0-----0-0--
----------------0---------0-0-----0-0-0-------0---
---------------0-------0---0----0--0----0---------
------0---------------0-0-0----0-0-----0100-------
-----0-0-----------0---0-0-0---00------01--0------
------0-----0-----0-0-0---0---0-0-------0-0-------
-----------0-------0-0-0-------0----0-------------
--0-------0---0-------0------------010------0-----
-0-0-----0-0-0---------0-----------010-----0-0----
--0-------0-----0-0---0---0---------0-------0-----
---------------0-0-------0-0----------------------
------0-----------0-0---0-0-------------0---------
-----0-0---------0-0---0-0--------0----0-0--------
------0---------------0-0--------0-0----0---------
---------------0-----0------------0---------------
--------------0-0---0---0---0---------------------
---------------0---0-0-0---0-00-------0-----------
----0---0-----------0-------00-0-----0-0---------0
---0-0-0-0---------0----------0-------0---------0-
-0--0---0---------0-0---0------------------------0
0-0----------------0---0-0--------0---------------
00--0---0---0-----------0--------0-0---------0-0--
-1-0-0-0-0-0-0--------------------0---------0---0-
00--0---0---0--------------------------------0-0--
0-0-----------------------------------------------
-0--0---0---------------------------------------00
---0-0-0-0-------------------------------------011
----0---00---------------------------------------0
--------0-0------------------------------------0-0
-----0---0----------------------------------0-----
----0-0------------------------------------0-0-0-0

Generation = 6, Population = 301.
0-0-0-0-0-0-0--0-0-0-0-12-2-1-1-1-1---------------
------------------0-----2-2-2---1---0-------------
--0-0-0-0-0--0---0-011---01-0-0-0-----------------
--------------------0--10-----0-0-----------------
----0-0-0------0--00--01----0-1-----------0-------
---------------------0--11----00--0-0-------------
------0---------01--10--0---------------0---0-----
-------------------1---0--1000--100-0-------------
------------------01------0-----------0---0---0---
-----------------0---0---01220110-01--1-----------
----------------0-------------------1---0---0---0-
-----------------0-0---0-0-0100-00--10--0---------
------0-------0-----------0-----------0-1-0---0---
---------------0---0-0---0-0--01--00--0---1-------
----0---0---0---------0-0---0---------0-2-0-0-----
-------------0---0---0-0-----0--10--0---1---------
--0---0-------0-----0---0-0---------1---0-0-0-----
-----------0---0---0---0-------0--0---0-----------
0---0---0-------0-0---0-0-0-------0---0---0---0---
-------------0---0-0-0--------------1-------------
--0---0---0---0-0-0-0-0-----0-------0---0---0-----
---------------0-0-0-0------------0---------------
----0---0-------0-0-------------------0---0-------
---------------0-0-0---0--------0---0-------------
------0---------------------0-----------0---------
-------------0---0---0---0----0---0---0-----------
----0---0---------0-------0---1------------------0
---------------0---0---0----1---0---0---0---------
-00-------0---------0---0---0------------------0-0
-----------------0---0--------0---0---0-----------
1--0--------0---------0---0------------------0-0-0
-------------------0------------0---0-------------
1-------------0---------0------------------0-0-0-0
----------------------------------0---------------
1--1--------0--------------------------------0-000
--------------------------------------------------
-00------10-----------------------------------0122
--------------------------------------------------
----00-01--0--------------------------------0-0--1
--------------------------------------------------
---0-0-0-0--------------------------------0-0-----

Generation = 7, Population = 656.
-------------00---0----2--3-2---2--00-------------
0-----------00-0-0-00---30---0-0-000-0------------
-0---------00-0-0-01221101--1-1--0--0-------------
--0-------0--0-0-0001---1-0--0--10--------0-------
---0-----0----0-0011--1-00-0----0-0-0----0-0------
----0---0------00000-1---21-00-100---0--0-0-0-----
-----0-0-------0121-2-0-1-20000000-----0-0-0-0----
------0---------00-2-00--0---1012-1--00-0-0-0-0---
------------------1-00-0---0--00-0-00010-0-0-0-0--
-------------------00-0-012-----1-12-0200-0-0-0-0-
---------------0-0-0-0-0--0----0-00-2-0010-0-0-0-0
------0-------0-----0-0---01--1-1101-1-0-00-0-0-0-
-----0-0-----0---0---0-0-0-000-000000-1-2-10-0-0--
----0-0-0---0---0-0-------0--012101100-0-0-00-0---
---0-0-0-0-0---0-0-0-0-0------000000001-3-1--0----
--0-0-0-0-------0-0---0-0-0---0021001000-0--------
-0-0-0-0---0-----0-----0---0-0-0000020001----0----
0-0-0-0-0-0-0-----------0-----0-001010100---0-0---
-0-0-0-0-0-0-0---0-0---0---0---0-0101010-0-0-0-0--
0-0-0-0-0-0-0---0---0-0-0-0-0-----00200-0-0-0-0---
-0-0-0-0-0-0---0-------0---0-0----0010-0-0-0-0----
--0-0-0-0-0---------0-------0----0-00-0-0-0-0-----
---0-0-0-0-----0---0-0-0--------0-0-00-0-0-0------
----0-0-0-----0-0-0-0-0-0---0--0-0-0-00-0-0-------
-----0-0-----0-0---0-0-0-0-0-00-0-0-0-00-0--------
----0-0-0---0-0-0---0-0-0---0010-0-0-0-00--------0
---0-0-0-0---0-0-----0-0---000200-0-0-0-0-------0-
-00-0---0-0---0-0-----0---002000-0-0-0-0-0-----0--
0110-----0-0---0-0-------0-0100-0-0-0-0-0-----0---
0000------0-0---0-0-----0-0-00-0-0-0-0-0-----0----
-00-0------0-0---0-0---0-0-0--0-0-0-0-0-----0-----
---0--------0-0---0-0-0-0-0----0-0-0-0-----0------
-1-----------0-0---0---0-0------0-0-0-----0-------
---0--------0-0---------0--------0-0-------0----0-
-00-1------0-0--------------------0---------0--1-1
0000-----00-0--------------------------------00---
0110----0210---------------------------------01--3
-00-00-00000--------------------------------0--00-
---011-1200-0------------------------------0---00-
---00---00-0------------------------------0---0--0
--0-------0------------------------------0---0----

Generation = 8, Population = 103.
0-------------1-----0-0-------------1-------------
----------------0-----00----2-0-1-----0-----------
-----------1---------------0--------------0-------
-------------------------------0------------------
-------------------2------------------------------
--------------------0-0-1-----0-------0-----------
------0-------0-------1-----1-1-------------------
--------------------------------------------------
------0---------0-----------0---------------------
---------------0-0------1-----11------------------
------0------------1--------------1-----2---------
-----------------------0---------------1----------
----------------------0---------------------------
------------------------------2-------------1-----
--------------0-------0-------1-------------------
--------------------------------------------------
--------0---------------0-------------------------
---------0---------0---0-0------------------------
0-------------0---------0-------0---------0-----0-
-------------------------------0--1---------------
--------------0---------------0-------------------
------------------------------------1-------------
----------------------0---------------------------
--------------------------------------------------
----0---0-------0--------------------------------0
-----------0-----0---------0----------------------
-0----0---------0---------------1-------1---------
--------------------------1---------------0-------
----------------------0---------------------------
--------------------------------------------------
-----0--------------------------------------------
--------------------------------------------------
1-1---------0---0------------------------0-0----0-
-------------------0------------------------------
-----0---0--------------0-----------------------0-
----------------------------------0---------------
-----0--------------------------------------------
--------------------------------------------------
-0-----------0------------------------------------
--------------------------------------------------
-0--0---0-------------------------------0---0----0

*** Life<FredkinCell> 7x1 ***

Generation = 0, Population = 7.
0
0
0
0
0
0
0

Generation = 2, Population = 2.
-
0
-
-
-
0
-

Generation = 4, Population = 0.
-
-
-
-
-
-
-

Generation = 6, Population = 0.
-
-
-
-
-
-
-

Generation = 8, Population = 0.
-
-
-
-
-
-
-

Generation = 10, Population = 0.
-
-
-
-
-
-
-

Generation = 12, Population = 0.
-
-
-
-
-
-
-

Generation = 14, Population = 0.
-
-
-
-
-
-
-

Generation = 16, Population = 0.
-
-
-
-
-
-
-

Generation = 18, Population = 0.
-
-
-
-
-
-
-

*** Life<FredkinCell> 44x44 ***

Generation = 0, Population = 14.
--------------------------------------------
----------------------------------0---------
--------------------------------------------
--------------------------------------------
--------------------------------------------
-0------------------------------------------
--------------------------------------0-----
--------------------------------------------
---------------------------------0----------
--------------------------------------------
--------------------------------------------
--------------------------------------------
--------------------------------------------
--------------------------------------------
--------------------------------------------
--------------------0-----------------------
--------------------------------------------
--------------0--------------------------0--
-------------------0------------------------
--------------------------------------------
--------------------------------------------
--------------------------------------------
--------------------------------------------
--------------------------------------------
--------------------------------------------
--------------------------------------------
---------------------0----------------------
--------------------------------------------
--------------------------------------------
-------------------0------------------------
------------------------------------0-------
--------------------------------------------
--------------------------------------------
--------------------------------------------
--------------------------------------------
--------------------------------------------
--------------------------------------------
--------------------------------------------
--------------------------------------------
--------------------------------------------
-----------------------------------------0--
--------------------------------------------
0--------------------------0----------------
--------------------------------------------

Generation = 4, Population = 55.
--------------------------------------------
-0----------------------------0---0---0-----
--------------------------------------0-----
--------------------------------------------
---------------------------------0----------
-0---0----------------------------0---------
----------------------------------1-------0-
--------------------------------------------
-----------------------------0-------1------
-0------------------------------------------
--------------------------------------0-----
--------------------0-----------------------
---------------------------------0----------
--------------0--------------------------0--
-------------------0------------------------
----------------0-------0-------------------
--------------------------------------------
----------0-------0------------------0-----0
---------------0-------0--------------------
--------------------0-----------------------
--------------------------------------------
--------------0--------------------------0--
-------------------0-0----------------------
--------------------------------------------
--------------------------------------------
-------------------1------------------------
-----------------0-------0----------0-------
--------------------------------------------
--------------------------------------------
---------------0-------0--------------------
---------------------1----------0-------0---
--------------------------------------------
--------------------------------------------
-------------------0------------------------
------------------------------------0-------
--------------------------------------------
-----------------------------------------0--
--------------------------------------------
0--------------------------0----------------
--------------------------------------------
-------------------------------------0-----0
--------------------------------------------
0-0-0------------------0---0---0------------
--------------------------------------------

Generation = 8, Population = 55.
---------------------------------0----1-----
-0------------------------0---------------0-
--------------------------------------------
--------------------------------------------
--------------------------------------------
-----0---0------------------------2---------
------------------------------1-----------0-
--------------------0-----------------------
-------------------------0---------------1--
--------------0-------------------1------0--
-------------------0------------------------
--------------------------------------------
--------------------------------------------
-0------------------------------------------
--------------------------------------0-----
------------0---------------0---------------
---------------------------------0----------
------0---------------0----------0-----0----
-----------0---------0-----0----------------
--------------------------------------------
--------------------------------------------
-------------------1------------------------
------------------------------------0-------
--------------------1-----------------------
--------------------------------------------
--------------0--------------------------0--
-------------0-----4---------0--------------
--------------------------------------------
--------------------------------------------
-----------0---------------0----------------
----------------------------0---------------
--------------------------------------------
-----------------------------------------1--
--------------------------------------------
0--------------------1-----0----------------
--------------------------------------------
--------------------------------------------
-------------------0------------------------
0--------------------------0--------1-------
--------------------------------------------
---------------------------------0-----0-0--
--------------------------------------------
------0-0----------0---------------0--------
--------------------------------------------

*** Life<FredkinCell> 18x13 ***

Generation = 0, Population = 92.
-000--0-0--0-
-00--00--00-0
---0---00----
--0-0--00-00-
-0--000--00-0
-0--00000----
0--0---0-----
---00----00--
-0--0---00---
000-0-000-000
0---0--00--0-
-0----00--00-
0---0---00-0-
-0--00---0--0
0-----0-0--0-
0--0--0------
0---000-----0
-----00-0-0--

Generation = 6, Population = 118.
--4------21-1
3----202--2-1
-33022-0-0---
1-1011022121-
3--162-0221--
--1--2------2
2-311-1--13-0
-11-1---2---1
--102----0-2-
-4-1124-43-44
-2--23-11---2
-330---214--5
0-203133--3--
---21314-2--2
--1-31-0-1--4
22313---1-202
-------2-12--
3----2-1--115

*** Life<FredkinCell> 43x17 ***

Generation = 0, Population = 93.
-00-0-----------0
--0-------00-----
--0-----------0--
0-0-0------------
0--------0-------
-----------------
---0----------0--
-----0-0---------
-----0--0--------
0--------0------0
-------------0---
----0------------
------------0----
-0---------00---0
-----------------
-------------0---
--0----------0---
-0---------0-0---
-0--0------------
---0-------------
----00--0--00--0-
----------0-0----
-0----0----------
---0----------0--
0---0------------
---0-----0-------
---00------------
--00-----------0-
-----0-----------
0----------------
-0-0---0-0-------
--0-0------------
0---000-------0-0
---0-----00-0----
--------0--------
-------------0---
--------0-0----0-
0----------------
--------------0--
---------0-------
--0---0-------0--
--------0-------0
0---------0------

Generation = 3, Population = 368.
2-1100-000--00---
00----001-11-10--
02100-0--1--1----
1-30------1------
300-00-10--10----
-0-011-1-0-00---0
11-00--01100-0-01
1-0---01-00-00001
--00012-00--01-0-
----1--00--1--10-
-0---1-0--01-0---
1-10---0--0---00-
00000-0--01--2100
---110--01-10-00-
-0--0----00---00-
000-------0-2---1
110------00--00--
01-0000------10-0
--01-21----21--10
--0-02000-122--0-
-01-31220-01---0-
0-0--00--0-03000-
--0---0-0001-00--
02---10-011-0----
120-10-0-000--000
01--0-0-0-0-00110
1--13----0-0-000-
--1--2--010-0-0--
-1022---010--0-0-
1-1-1000---0-----
-1-11--1-10--0-0-
-0123---021010--0
1-0--03--20--010-
0-2-1-01-13-1-2-0
1-0---0-1------11
100--00--12---02-
--00-0-0-010-22--
--10------0-01000
-010-0-010-0-01--
-00----1200-0----
0-----0-2010--1--
-----0200220-0--1
-----01--01---100

*** Life<FredkinCell> 2x49 ***

Generation = 0, Population = 37.
0----00-------0----------0---0-000-0--00----00---
--000-00--00000-000-00--0-0--00-0----0-0--------0

Generation = 9, Population = 46.
---2--215-0---6022-21-----2-0--5-2-34-9045065-23-
-22---062-6---2----2-4---20-2534-0--11-5--------3

*** Life<FredkinCell> 12x49 ***

Generation = 0, Population = 67.
-0--------0-----0---0-0--------------0-----------
---------------0------0-----------0-------0----0-
0----------------------------0-------------------
----00----------00-------------------------------
---0-0--------0------------0--0---------00-----00
----------0-0----0--------0----------0-----0-00--
------------------0---------------0-0----0-------
--0--0---0-------------0----------0-------0-0----
-----0---------0----0------0-0--------0-----0----
--------0---0--------------------------0---------
-----------0-------0---0-----00----------------0-
---------------------00-0--0-----0--------------0

*** Life<FredkinCell> 26x45 ***

Generation = 0, Population = 89.
----------00--00-0-0------------------0------
-----0---------------------------------------
0-0---------0--------------------0-------0---
------------0------0-------------------0-----
-----------------0-0----00----0--------------
---------------------0---------------0------0
-------0-------------------------------------
0--0---------0-----------0---------------0--0
------0-------------------0--0----0---0------
----0-----0----------------------------------
---------------0------------------0----------
---0-----------0---------------0---------0---
-0--------0------0--------0------------------
-------0-----------------------------------00
0----------------0----------0---0----------0-
------0----------------------0---0---------0-
-0-0---------------0-0-----------------0-0---
----------------------------0------------0---
--------------------------------------0------
-----0--------0----------0-------------------
-----------------------0-0---------------0---
--------------0-----------------------------0
----------0-0-------------0---------0--------
-------0----------------------------------0-0
--0---------------------------------------0--
-0--------------------0-------------0--------

Generation = 4, Population = 286.
0-0---00--22102--21--0-000----0--01------21--
-0---0---1-----------1---------------0------0
0-0-0-010-01--0011-1---------1--------2------
1--0----0----1-11------1-1---------1-----3-00
------1---11-00--2-20--1----2----------------
----11----0------0-------3-------1------102--
0-11-------11--1-----------------10------1---
--301--1-0--1--2-1-1-0-------1-1-----0-0013--
-10----------------0--0-0-1---1--00---0---1--
0-----312-----0------0---------------0-----1-
0------0---1-----1-0--------1-1-0-----0----0-
0--0--10---1-2-----1-----0-0-2---0-0-0---0-00
---3-0-------00----0--0---0--00---0---01-0---
---00-----00----------------1----------10132-
--2-0--------0-2-----0--0---1---0-0-0-10---0-
--11-0----1---01-------------1-0-0---1-0-1-4-
-----2-1--0----0----------1--------1-2---2-1-
-------1------0---------1-------0----1-----0-
1---------0-1----0--------0-1---0-0-0-----00-
-1----10-01-------0--0-----------0--------100
-001-----------------------0-0-------0-2-11--
-0--------0-------0---0-----1-------1---011--
------0-0-----1-1-----0-------0-0-----0-0----
-0-0-0-----0--2-------0--1----------3-1-2-4-2
0-0---0----------------0-1------------1--11-1
-0---0-0------0---0-------1-----0-------1-1--

Generation = 8, Population = 259.
--01-----1-4------53--22-230-10---3---2-----3
-1--0-----1--1-------2---------------0------0
------2-0-2----2-3-11---3-----4--22----------
---12------21--1---21------2-----------2-4-2-
100------1152---1-----1--141----2-----2--0---
-----3-0-----2----------------------0-2----10
1---------05--1----1--------0---1-----2----2-
---2-3--2--3-----1---1-------1---0--0-1--3-3-
03-0------11---1-01-------1---3---2--121-23-2
-----1------2-----0---------1------------2---
2-1----1----0----------1--0------0----1--13--
---4-1-2---30-2----1-----0-------2-------1---
--3--2-----------1-2---001----2---0------2---
--------------14-----0-------------21033-----
------20102-0-------0---011--------0---22----
---2---3-----22------1-------------0-3-4--2--
--13-41--1---1------------31---1-31---2--401-
-0--0-----1---------1-2----------0-------2---
---------------0--------------0---0---------0
---4--2------0-0-1-------------0-1--1----1---
-40-------0----0----------4----0---------33--
------3---------------2-------------1-1---10-
2-0-2-----1-1----0--2-----0-----2-0-0------03
------1-------60-------------0---02-3-2-4--14
-0-00-----1--------0-2-0-5--------0----12----
---------0---------------2----2----------0--1

Generation = 12, Population = 534.
-04--1--41-53155437-514-3-3--2230-4-----26---
2---0-11423---0------2---3-------1--001-0232-
4--32-2--1-231-65-11101-42-1----3----13----03
4--2-1--1--------2-3-0--0----0-1-1-10002-6-2-
----3--4253-204-141323---3432-21--1-3--0-1---
---244----2223---50--0------0---1-2--2-3-4-14
1---1---3---4-15-0310-----1-0-2-1---3-25-4-2-
-5---3-1-1--520--2--12---1-1-2--0-2-----1-4--
4-1-3-1--33-21-320---2202--2--4-4534-33-13-03
-0---2-260---2-50----01-0-------1--1---3---51
--142--3-0--0-4-1---1-0-1021421-2-22---11-711
-6-4-3-6-16--43-071--1-2-----5---4-12232-300-
--5--3----00-----1165--1--3-01-2-01---21---21
-0--14-----51----3-20-1--3--2--10-03---32264-
0--351322-34-014----00112-3-20-2-0200-23-110-
---4-41--07-2362-000-------------1-22-35-5-62
5-3---33-----3-4---0--0-1152-03----3---2---50
11---0--2------21-2--04-1-3--2-----3-6-1--23-
3-1-0-1022-0-----1-2----321---0-4--21-11--362
--14--2--453---0-3-4-------1----020-3202--231
0-4-2-2--020-11------112-24---51-3-1-2-213402
-11-3----2--------1-3-3--10---1-122---210-20-
--2-3--------061-----33-2---2-0-2-4-0-10--323
--11--1--3-1-4-2-301---------1-13-6--121---1-
320441312-----2--1--------13-110--204-6232342
-----0-------122-----02---3------0---1------3

*** Life<FredkinCell> 30x30 ***

Generation = 0, Population = 73.
-----0---------------0--------
--------0-----------------0---
-0-----0-------------------0--
--0--------0--------0-----0---
-0---------------0------------
----------------00----00------
------------------------0-----
-----0-----------0-----00-----
--------------------0---------
-------------0-0--------------
------------------------------
------0-----------------------
--0--0---------------------0--
----------0--0--0--------0----
0---------------------0-----0-
-0-------0-0------------------
----------0-----0-------------
0--------------0--------------
0------0--0--0--------0-------
---------------------------0--
------0----------0------------
--------------0---------------
----------0-------------------
----------------------0---0--0
0-----------------------------
---------------------0--------
-------------0----0--0--0--0--
-----------0--0-----0-0-------
---------0----0---------------
-------0---0-------0------0---

Generation = 2, Population = 244.
-0-0-0-------------0-0-0---0--
--0---0---00--------0---0-0-0-
-0-0-----0-------0---0---0---0
0---0---00---0--010----00-0-0-
-0-0---0-------0---0----0--0--
--0--0-----0--01-010-1-2-00---
-0---------------0--0-1---0---
---0---0-----0--10-0-0-2-10---
------------------0---0-1-----
-----00----0-0-0-------00-----
--0--0--------------0------0--
----0---0-0----00--------0----
---11--0--------------0--1--10
-0----0-01--1-11--0----0---1--
0----0----1-----1---0---0-01--
0--0---0-010---01--------0----
-------00-0-000---0---------0-
210------0-0-1---0---------0--
2-0--01-11011--100--0---0-----
1-------------00---------0---0
0---0--10----0-0---0--0-------
------------0---0-----0---00-0
0-----0-0---0----0------------
--------------0-----01-----110
0-0-------0--0----0--1--0--0--
-----------0--0----01--0--0--0
0--------0-1--000--10-01-11--0
-------0-1-010--0-11010-1-0---
-------1---001--0-0--0--0--0--
-----0-0-----01--0-0100-0-0-0-

Generation = 4, Population = 225.
-0-----0-0---------------0-0--
----0---0---1---01-----0--0---
-0-0-------1---------0-11----0
0----100-------023----12------
-0-----------1------1---------
--------0---1--1--1011-----0--
-0-----1------------0------10-
-11---1--0-0-0-----0-0----010-
-00--1----------10------3--0--
---------010-0-----0--02-1----
0---------------------0-1---1-
-01--0---001-----1-----01-----
01----0--11-----1---0--0-----2
0-----0--3--103--1--10-------1
2-0-1--1--3--0----1---0-0-2-1-
-1----12-----1-2-----------1--
--1--0------2-2--0--0------0--
--0-0-----02-30-0--0-----0----
2-211-3--303--0--01---0---0-0-
-1-------1-1----------10--1---
2-0----------0--0----1--------
0---------0----0--0--1--------
0-----00--0---1---1--11-0--0--
-----------0--0---1-2----01---
--0-0-0--1----1--1------------
-------0---2--2--0-0-----02---
---------20---0-----2-01-3--12
----------02---00--3--0-3-2--1
0----1---11--31---2-----------
---0---2------3-----12-0------

Generation = 6, Population = 428.
-----0---------------0--1-----
0-0--100--------2310-11200--0-
-0-0-1-1-----------01013--1--0
0-01-3-220---11-2------20000--
-------1-------1--1-30111--100
000--000-1-1--21-13-1----11200
--00-----1---1--001-2-1-1003-1
1--1---0--000----1101-1-1-2101
-0--1---------01--100---3002-0
-----110121-0--0---011---11-1-
-----20--00------1----20---1-1
----2-0-102--001-1--1--0--0--1
0--2------10111---0--01--200-4
0---112-25-13253010---0-1----3
410-1---1-31--01-0----00---210
1-10-03-1-2-03-22--010--------
0---0-0--02021-00010--0-01---0
3-0-2--00-----2-020--01---0---
21----31-3-53-2202-001----200-
2-111--0-3----211-100-------1-
---1---2-1----11-110-3-10-100-
011-----01--110-0121--1--0----
--0--12------13-01-1-130000--0
1------1-1001101-0-0211002311-
--0-----11-00--11-0112-000-100
-----0----0-112--20-1112-0-112
0-0-00011-02-1--11--2103153--2
---0----03-43-2--113--21-1-103
0-01----131---10------11-0--01
-0-0---2-1100-51--1-3---200--0

Generation = 8, Population = 219.
-0------------------1---3----0
0------------0-1-31---34--0---
-0---1---2-----0-2-0-----1----
--210-0---101-----210-------0-
-10----1-----------------1----
---------30--0412-------1-3--2
0----1----------2----03-------
-----------0-0-12--------2--03
-----1----0-0---3----0------0-
0----1-01------2-----3-4--1---
00--------2--1--------4----1--
1-2--------2--2-----1-----21--
----2-1---1--1-----1-----4----
--1--1--2-----5-0-0--1011--2--
------0-1-3---0-----1---------
-2-2-----2---------0--111-0--0
0-2-----2---------3-0---2-----
------102----4-0-----0-1------
--3--25-3----044--------0--0--
------0----3--4----00-1--0----
3-1--0-------------------1-0--
------10--21-3--0--3--3--22---
1-2---------------2---3-----0-
-1-----1-1----2---32-1-0------
------0-310---2-3-------------
1----------2-340----3-3------4
0----2-1-----3--3-12--0-155132
---2--1-----5-4----5-24----32-
01--------------------1-------
---2-------0--51--11--2----1-2

Generation = 10, Population = 442.
---0-1---0-----1-1111---3110--
0--00-0---1-20--333-13---1----
--0----1---2-1-2---211-531-0-0
-12--50-----33------21-31-1--1
-3-010---------311-2-012-1-2--
--100-011-2-2-4--2-01-2-12332-
02-0-1----1-0-1-2-2032-122--1-
2----0-00-10-0-3421--0--2-4---
-0-0-3-11---00--5-10-2-1--13--
---0-322-41---1200-035-41-10-0
2-00031-1--0-1-10--010--2---22
3---3--0-1--1123---------14111
210-2---1--13130-0--1222------
-11-1-41-7024-----0-13----12--
5-1-----3----1--3--01-0-00----
-222--4----1-313200-2---100-10
----102------2-10-3-----4-11--
-1-030--4-0--642-2-000--1-1--0
3--2-473--1750-4122-2-2-0-30-0
----2----31310-1-0222---0230--
3-1310141----131--1---1221--10
-1--0032-2--2321-2----5--2-11-
1---024-012---5---------1111--
1--0-00--3012-4212-----0--4--1
--0-010---20-02---13----1102-1
3100--11---2---212--3--41---26
-101-2112-03---0-23--2-3-5--5-
01-210--1-1-514-211--4-34223-4
--22-1-1-----4--1-300-1--00013
-1---00--1-0---3--3-----31-102

Generation = 12, Population = 396.
-01----0-0-----111-11---53-21-
0-0-2-----12-0--5----3562-00-1
10---2---2-2---20--413255-----
--2-------20-3-13-----35-0---3
1--0--1---100---1---3---1---1-
------2134414-6----2-2---2-52-
041-13----1-22-1--225-5---14--
4--21-10-012--15-23-20--436--4
--0-1--3100-201-51-02---42--2-
-1-0-5--2-3-11-4-21--7-4-11--2
412-2---122-----021-3050--0--4
30203-10-143-1----01-----34-31
-----12--3--3-50101-1--41---35
-1--31---90--47--2-1--12-0-413
51--30--3-4-0--25-2---0-------
144---63-----5-5--0-4--2---33-
----12----4-423-0--00-1-4--30-
---0522041-2084---02-2-21-1---
-2--1---4-397-6--2-0--20-----2
--33----------6-2-2---11------
-1--1-----1---5-1-3-14-24-----
2-10----143-4----23-------4---
----0--22------11--1----33---1
-2--------0-4362-4343130----2-
-0--2-2------22---3-1-0--1-4--
--000-3--0-2-45--210----1----6
23-32------30-12-4---40-27527-
-104----33-5----23---66342432-
2-4-111-142---2-3-5---1---2---
1--3--2---2-2173----434--12-2-

Generation = 14, Population = 435.
--121----0---113-3-3--1-----30
--2-2-0-013-3-1-5-3033---22011
-2-1--11--0-1-12-4--1--55-31--
--2---23---2-3-15533223---2-0-
15---1-----0----3-2--0-21-03--
1-31-1---4-3------441-3212-5-3
0-32-----31-2--34024-25-----22
6--431---0---21----14--34--1--
1-0-3--3----22-1-------------2
--0--5422--11--40--1-----1---4
--21-42----0120-2-31-25----32-
-2--3-1233---13-13232-111--1-3
--1331--2321-2-----1---4-521--
--313-5-3904---514------30-6-3
5---3-02316-0--27--1--220--3-1
-66--285-22-17-73---6---21-33-
1-30-2304-4---3---5001-063----
3-1-5-206---0---23-4---21010--
-234-4--65--7-66122-312200--12
-25---10--2532---142---3-3----
-134--253-311--232-1362-6-3---
---220321-32-53--4---2--0-----
--3--36--1----5-3-4-----5521-1
3--00-2-----6-----56--52-2---2
121-4-41------413334-4-1111-0-
53-2-152--14--72223--24-31---6
--15--3-3---2514-4----0---7-72
-124-222----625--3-6----6445--
43--3-----2-2--1-15--11-1220--
----004-11--4-----53--415-2-2-

*** Life<FredkinCell> 23x12 ***

Generation = 0, Population = 17.
0-----------
-----0-----0
------------
------------
---------0--
--------0---
--------0---
----------0-
------------
------------
------------
0-----------
------------
------------
------------
-----0----0-
------------
---0---0----
-----0------
------------
------------
0------0---0
-------0----

*** Life<FredkinCell> 10x6 ***

Generation = 0, Population = 52.
000000
00-000
-000-0
000-00
00-000
00-00-
-00000
000000
000000
000000

Generation = 7, Population = 28.
----51
---42-
2-311-
13---3
2--4-0
2-----
---05-
0-11--
-01323
03-2--

*** Life<FredkinCell> 33x46 ***

Generation = 0, Population = 174.
--------0----0-----------------0--------------
----00---------------------0------0-----------
-0----0---------------------------------0-00--
-------0----0-------0----------0-0--0-----0---
-----0--------------------0---0-------0---0---
-----------------00-----------------------0---
--------------0-----0-------------000-------0-
---00-------0---0------0----------------00----
---------0---0-0--------00-0------------------
------------0--0-0---------0------------------
--0-------------0-------------0--0-0--0-------
--------------00-------------------0----------
--------------00-0---------0--0---------------
-----0----------0--0---0---------------------0
------------0------------0------0--0--------0-
-0-------0-0------------------0-----------0---
----------------------0----0--0---00------0---
----0-0---00----------0--0-----0-------00-0---
---------------0------------------------------
---------------------00--------0----0---------
----0-0----0-------------------00---0---------
0-------0-----------------0-------------0-----
0-----------0------------------------0--0-----
-----------0---0---0---------0-----------0----
---------0--0-------0-0--------------0--------
------00---------0-----------0-0-0-------0----
-----0-0-------------00--0----0---------------
--------------------0----0-------------0------
0---------------0-0-------0--0-0-0------0-0---
--------------------------------0---0-00-0---0
0--0-------0-0------0-----0----------0-0-0----
0-----------0-------------------------0-------
------------0-----0-0-----00---0---0----------

Generation = 9, Population = 752.
--0-0-2-0-1-2--3120-11-1-2210----232423-0--3-0
33-1-2------11-30022-1-12---1---2224---0-1----
-0302--10-2---30-120---0--1-----12-10--2031122
0-20-0--21------100--------1--0-1-3-34--332-30
-----1---01-0143023--0-2---40--2-03010-0-----1
---1-1---240--0-----2-0---120--10--02-2--2302-
-422-1--320---123--102----3-0-----4542-2--3--0
1---2-1-3202-10-----------0--0-----10---313211
23-0010--111--2--101-22---1503--23-----010--0-
---1-23--22515-33-4-311--10-0-13---50--4-3-2--
1-1030-0-02-2-1-1--0--1-23--01---002-4-3--1---
-0----1-020--2-1----2203---30--2--010-1-1-510-
00-0221----4-2-1-1---32204-1-2141-221--000----
-21--0-0-0410-1---4-----24--0--3-11--3-2--4-0-
10-02----0-012-2------2-32-221-10314-1---01120
--01-20-0--14-2---11016102113------1-13-4--04-
10-01020-0-----2----40123-2--3321144-2--210--0
-1--1-540---20-414---2-6-----1---120-14--23433
10--2--2-----2-0--21-2-2-4010-----2510---04--0
---1-0---------3032-----12---5----121-01--2021
2052101-1--0--1---2---01204-3261---01--11----0
611--1--21-2-2-10---1-22-4-12-33---0-022-6-15-
--3-21312-12521---0--0--022-0----0--31-2-4-2--
---30---2-0-2-0--0----2-011--2--2--12-2----10-
542-2210--23112-041--010---2230111-1--0-0--10-
-2-14--266-5-1122----2-3--230----4-31--24-3200
2-0-0-0--11---2-0-3-------6213--------113101-0
2--10-----0-200-244-0---130---0-141-2-80--0---
-22321--00-03-2-----2-0425-----1---1-------02-
10-000111001-0--0-002---211-3-34-2-0-6303----2
2----3---0135----312--1-1-3-3--30--2-7-1-24---
---05-303--12-1-----0--2040002-1---0--35------
---0-10-312----0-12---------5441-013---3221-0-
