*** Life<Cell> 22x50 ***

Generation = 0, Population = 140.
-------0-0------------0-------0--------0----------
------------0------0---------0-------0----0-------
0-------------------------------------------------
00---0----0----0-0----0-------------0---0----0----
--00-0-00----0--0-----------0---------0---0-0-----
-------00-------------0-----0-0--0-----------0----
---0-----------------0---0-----0------0-0---------
-------0---------------0----------0--0----00------
---0----0--0---------0----------------------------
----------------0--0---0--0--0----------0---------
---0--00--0--0------------------------------0-----
--0--------0--------0----0--0-0---------0---------
-----------------------------0-------------0------
--------------------0---0-0---0----0----0---------
---0---000---0---0-0-0------00--000---0---------0-
-0-00-0-------------------------------------0-----
---0------------0--0----0--0-------0-------------0
---------------0--------0--0----0---00---00-0-----
--------0-------------0-0-----0----------0----0---
------0---------0------------0--------0------0----
---00-0-------------0----------0------0-----------
----------0---------0-----0--------------00-------

*** Life<Cell> 16x37 ***

Generation = 0, Population = 144.
0-----00--------0--0-----0--0--000---
--------0---------0-0--------0---0--0
---0--------0--00--0---------0-0-----
0-0-000----0-----00----0--0----0---0-
-0--0--0-------0-0--------------0---0
0-0-0000--00-00---0-0--00------0-0-0-
00--00-00--------0-0--0------0-------
00-0-0-00----------0---0-------00-0--
-0--0--0----0--0----0-----0---000--00
----0------0--------------------0----
0---00------------------0-----00--0-0
00----0----0----------------------0--
-0-------------0-00----0---00-0-0----
-----0-000--------0-----0---0----00--
-------0-0-----0----0-0-0-0-----0----
---0----00-00-----00---0-0--------0--

Generation = 9, Population = 245.
1--0-.....1---****1*-.-**....1.**-.*-
.-.--**0.*-.*.---.-*-0*.-*---*-...*.*
.*.1.....---..**...-*.1.1****.-..-*1-
10-*-*.--.......--1*-.---.1010...0.*.
1-.*--*..**...-..*--.*----.--.**.-.11
*1--..1--0.10...-...11-*.*00-.***10..
*.*--.-.-.*-0.*-***.*.*..*..-.*-*1-.-
-*1.1...**10--01*...1-.1.*---..-*1-1.
-**--.1*.0---.-001-.1.*..--******00..
.***..-.***.1.*-*-0*-.-*.-.10--*..*11
.*-*.*01---0.10--.*-00-11-*1...*--.**
-1.1.-1.0*1**1*--..0--*1*.*..-.0...-.
-.**-.-*-*-*1.....-*-...1**..-*-1-..1
1.11-*0*-..**.*.-**.*0-.1*--*0.*.**..
*-*.1...*.-*0*01.-*.10-..0....--..---
*.-1.-11**-....***..-.-0..0**1*-**00.

Generation = 18, Population = 194.
1--1*.....*.**....-*-.1**....***....-
..........*...*-..*..-....--*.*.*....
**......*.*..*.....*..........-.*..--
*-.*-*...***.**....**.-.*.1..*.*.0...
*..*-0...*...*1...-.*.1-...*-.***-*1.
**.*...-.***.*.*....*10...-.*.*......
*..*....*.*...*.**...*..*.....***.*..
-***-..*.*****.....*.-*-........***.*
1**-....**.0-*.*-***.**..*........***
*.**..1**...*****...-.......--*....*1
***...*.-1-..**0....--..-*..*.*.-....
.*.*.-.*....***.-..-0**...**....*....
-..*..1.**..*.......***...***0..-*...
...-0**.1*.**.......**-...-..**..*...
..*.**....**1........**...*...*...-**
..-*.-.-............1..-...*.**-...**

*** Life<Cell> 49x28 ***

Generation = 0, Population = 100.
-----------------0---0------
-------0------------0-------
---0-------0----------------
----------------0-----------
--------------------------0-
------------------------00--
----------------------------
-----0-----------------0----
-0---------0---------0------
--------0--0----------------
----------0-0---------------
--------------0-------------
----00-----0----------------
---------0---0--------------
------------------0---------
----------------------------
----------------0-----------
-------0-----0----------0---
----0----0------------------
----0-----------------------
------------0---0----0--0---
0-----------------------0---
----------------------------
----------0--0--0-----------
---------------------0-----0
-------0-0------------------
0---0--0------------------0-
----------------------0-----
0-0---0---------------0-----
---0--0---------0-----0-----
---0--0---------------------
-----------------0----------
------0-----------------0---
---------0------0-----------
---0-0----0-----------------
-0------------0-00-----0----
----0-0------0-0------------
------0---------------------
---0-----------0------------
-----0------0---------------
----------------------------
---------0------------------
----0-00--------------------
-----------0----------------
----------------------0-----
-0--0-0----0--------------0-
--------0----0--------------
---------------------------0
----0------0--0-------------

Generation = 15, Population = 545.
1...1.000.--**-.*-.-1-.-.**.
-*0*0*-*01**.*.**-0*.0.-*1-*
0.1.1**-*..1.*..-.-...*..***
-1-.0.1..-.*1*-**.*--**1..0-
*0..-..-***.*100.*-*-*1-.-*-
..0*-.**....*.1..0....-*....
-....--..-**.**-1.*...*.*.1.
*....1..*-0...**.*..-..*.*1*
*..1.**.......-.***.10.*.*1-
*..-*.*..*...**.*-*--.1...1.
..1..*1*...0*....0.-.111.*-*
-*11...******.*.-...-.-.*011
*0.**.*1.....*-..*....1.-.1-
**-****..*.....*.-*.0*.-.10.
*..-..0....1*.**1.0*...--..1
*.....-.***-*...*001.-**.0.0
*0.1**1.....111.--..-..**...
*.........-*..----1*.*.*..*-
*1...-...11-..*.-.....-**..*
.1..*..-.***..-*-..-..**.-.*
.-....1*..1*-.1.*...-*...*-*
*..-.-1-1-*1......-..*...-*-
11*.1.-.*.*-*1-1*.*1.**...1.
--*--*..-*.**...1....-*-1*.-
...**.*..*0*.*1..***.*.**...
**1***.....*.**..-11..**...*
**-*....-***1--1.**1-*.-*-..
*.*-1...**.*...-*1*.*...*-.*
.0.*-*....1....**.*.....*-..
.....1.*.*-.--.-*..1...-1..*
*..*....**-.-.-0-*-*.*1*....
-.......*-**....**.1***.-..-
*..1**.*-.-.-.-..*.*.0*..*.-
*.-**..**-0.1.-.*........---
*.*.*..-*..-1.*.0*...1..-0.*
.-.*.-.-10....1*.*.*-...****
..*0........**.1*.*.1...-..*
...*.......*-....**-.*0-1--.
-.1*..*...***.-*.....**.**0-
01*.*-*1..*.**11-*..*.0-0-.*
-1--.***.1..-*11**--..-***1*
.*.-.*0...1.-.*-..1----*---.
.-**..*.*.***..-.-*101.1*.**
*......1.*..**.*1*-01-*...*.
*.*-.-.*.**...*.**11*1-1*-**
.......**....*....-1.*1**...
*1.....**..*..*..-.1*...-***
..01*.1..--.-.1..-*.-*..-*.*
-0--*.**.***.**.11**.0.--.-*

*** Life<Cell> 23x48 ***

Generation = 0, Population = 72.
--00-------0--------0------------------0-----0--
----------------------0-------------------------
--------------------------0---------------------
--0---------------------------------------------
------------------------------------0----0------
---------------------0--000-------------------0-
----------0--0--------------0----0--------------
---------------------0-----------0--------------
---0-----------------------0------------0-------
0---------0---------------------------0---------
----------------------0----0------------0-------
-------------------0----0-------0-----------0---
-------------0------00----0-0--------0-00-------
-------------------0------------------0---------
---------------------0---0--------------0-------
------------------------------0---0-0------0----
-----------------------------0---------0---0----
------------0-----------0-----------------------
-------------0-------0-0----------0-0---0-------
------------0-0-----------------------0---------
---------0-------------------------------------0
---------------------------------0--------------
----------------0-------------0-0---------------

*** Life<Cell> 38x3 ***

Generation = 0, Population = 57.
0--
0-0
-0-
--0
000
-00
00-
-00
-00
-00
0--
-0-
---
000
--0
--0
00-
---
00-
---
-00
--0
-00
-00
000
00-
-00
-00
---
--0
0-0
-00
-0-
00-
0-0
---
---
0-0

Generation = 3, Population = 56.
1*-
-0-
0-*
--*
*1-
-.-
---
11-
*.*
-00
1*0
--0
*0*
--1
01-
0--
1*-
---
---
-0-
010
1*-
00*
0.-
000
-1-
-*-
--0
---
*-*
-*-
010
0--
1-0
---
---
*0-
1-1

Generation = 6, Population = 48.
..*
-.1
-0.
0-*
**-
.*0
-1-
*.-
.*.
---
.*.
0--
.1*
*-*
1.-
1-1
-.-
**0
-1-
-.1
-1.
..-
-1.
1.-
1.*
-1-
*.1
---
01-
.0.
0*-
-.1
1--
.1-
-*-
-01
*.-
.0*

Generation = 9, Population = 43.
.*.
-.*
-0*
.-.
.*-
...
-.1
**1
.*.
---
...
---
.*.
.-*
1.1
.-1
1*-
..1
1.-
0.1
-1.
..-
--.
**1
*..
**-
*.-
000
---
*-*
..1
1.-
-0*
..-
1.-
-0*
..*
.1.

Generation = 12, Population = 43.
...
*..
*-*
.1*
.**
***
**.
*.1
*..
---
.*.
---
.*.
**.
-.-
.1*
*.-
*.-
*.-
*.-
11.
..0
11.
.*.
.*.
...
..-
00.
--0
.-.
...
1.*
-.*
*.-
-.-
*-*
.*.
.1.

Generation = 15, Population = 37.
.*.
*.*
..*
*-.
...
...
...
..-
.*.
-1-
*..
--0
*.*
*..
..-
*..
.*1
..1
..-
..1
1*.
.*-
**.
.**
...
...
..-
-..
.--
.-.
...
-..
1*.
***
**-
*1.
*.*
*.*

*** Life<Cell> 20x15 ***

Generation = 0, Population = 45.
---0-0-0-0-0-0-
----0-----0-0--
----0----------
---------------
---00----------
---------------
-----------0---
----------0----
---------------
0-------0------
-----------00--
-0-----------0-
-----0---0-----
--0---0-0---0--
-------0-------
----00---------
--0-----0-----0
-----0-00-0-00-
--0---0---0---0
-0-0------0----

Generation = 1, Population = 92.
--0-0-----0-0-0
----1--0---0---
---010----0-0--
---0-----------
--0110---------
---00------0---
------------0--
---------0-----
0-------0-0----
-0-----0-0-00--
00------0-011--
0-0--0---0-0--0
-00-0-----0-00-
-0-0---0---0-0-
--0-00------0--
--0011000-----0
-0-00---100-0--
----0-01--1-110
--------00-00--
0-0-0-0--010--0

Generation = 2, Population = 90.
-0--10-0-0-0---
--0---0-0-0-0-0
--0-*100-0-0-0-
----0-----0-0--
-01-*10----0---
----------0----
---00----0---0-
0-----------0--
------------0--
010---0------0-
-----0----1--00
1-10--0----10--
---0---0----1--
01--000-0----10
--1-----0-----0
---1-*----0--0-
0-0-1--0----1--
-0--1-1*00*0*-1
0-0-----1------
-------0-----0-

Generation = 3, Population = 132.
0--0*10-0-0---0
--10-01------0-
-01-*-110------
-0-0-0-0-------
01*-*-10--0----
-000-00------0-
0-0110--0-----0
-0-00----0-01--
-00---0----01--
1-10---0--0--1-
-0-00-0--0----1
--*-0------*--0
-0-1-00-----*-0
1*--1-1010---*-
0---0-00100--01
0-0-1.0000-0---
-0-0*--1-0--*-0
0-00*-*.1-*-*--
-0-00-00*-00000
0-0---0-----0-0

*** Life<Cell> 3x18 ***

Generation = 0, Population = 18.
-0-----00---00-00-
-0---00----0---0--
-0---0---000----0-

Generation = 1, Population = 31.
010--0-110--11--10
0-0-0-1-00-1-0010-
010-01--01--0----0

Generation = 2, Population = 17.
---0--0**-0-*----1
----1--011-------0
-----*-0--0---00--

Generation = 3, Population = 23.
--0--01..0--.1--1*
-------1**0-0-0101
-----.-1---0-01100

Generation = 4, Population = 23.
-1-001**.1--.----*
--0--0--.*11---*-*
-----.0*-1--01**1-

*** Life<Cell> 26x10 ***

Generation = 0, Population = 15.
----------
-----0----
----------
----------
-------0-0
----------
-----0---0
--0-------
----------
----------
----------
-0----0---
----------
----------
----------
----------
----------
----------
----0----0
-00-------
----------
----------
--0------0
----------
-------0--
----------

*** Life<Cell> 13x47 ***

Generation = 0, Population = 95.
-0--------0------------------------0-0---0-----
---------00------0----0--0------0------0-00-0--
-----------00--0-0-0--0------0--------0-00-0-0-
00-0-0-------------0-----0-------0--------0----
0-------00-------0------0---------0--00-----0--
0------------0--0---0--0------0----0-----0---0-
--------------0--0-----------00---0-----------0
--------0------0---------------0--------0------
-------------0--------0---0----00--0-----------
-0-------------------0-------------000---------
-----------------0--0--0---------0-------------
------00-----0--00---0----------0--0----0---0--
------------------------0--0----0-------000--0-

*** Life<Cell> 8x33 ***

Generation = 0, Population = 52.
-0-00-00----0--0-------0---00----
-------------------------0--0----
00-----0--------0------0-----0--0
-0-0--0---0-0------00----0-------
-----0-0-----0-0---------0--0---0
-------00-0-------------0-0---00-
--------00-------0-0--0--0-0--0--
---0----------------------0-----0

Generation = 3, Population = 123.
*11---11*--------100--00---.1-1--
0----0*0001--0-000-11001-1*--0--0
*-*-101----0*--0--1--10-----00*-0
0.0-*-0*----1-1--1--1-1*-.*-*01-0
1*-*0-0---0-0-01*--*----0.-------
-1000--0-*-----0000*-0*0---00----
---0011----1--0-0---**0*--0-0*10-
0----101*-1--0---0-000-00-----0-0

Generation = 6, Population = 107.
.-***0**.1*----0----0-----*.--*--
--1*--.*11.---00---1-1-*-..--*0*1
.-.1*-.00-0*.-0*--*-0-.0----1-.--
-..-.01.01-0-1.--1--1.*.-..1.-11.
-.1..1.-0-10.11..00*1--*-.-011---
-*--1-*11.1--0-1-0-.*0.1010-1--1-
*----.-*-.-101--100-*...0*1--..*-
--------*-11-----10-.-*0***-0---1

Generation = 9, Population = 108.
.-*..1.*.-*---*--*-000--*-..1-*--
1-*.**...*.-*00.*-1----.-**-*....
.-*-*-.11-.*.-1.*1.0.**1-*---1.--
-.*-*-**1*--1..1*.-1-...1...*1...
1.1....---11.*....-*.1-.1**1*.--*
-.-0--..1.*.--01*1-....-1.1-*-..-
*10--***0.0--1-1.--1....*.*--...-
0*00--11.-.**000-11-.0.0**.--0*-1

*** Life<Cell> 35x9 ***

Generation = 0, Population = 88.
-----00-0
------0-0
---------
---00----
-0--0--0-
-------00
0-00--00-
----00---
----00-0-
-0-------
-----0---
0---0-0--
0---0----
00-------
00---0--0
------0-0
---0-0---
0-0------
0----00--
0------0-
--0-0----
---0000--
--00-0000
--------0
-0-------
0--0-000-
---0-0--0
------0--
--0--0-0-
0--0-0000
--0------
--0----00
---0-----
-0--0---0
-0-----0-

*** Life<Cell> 10x10 ***

Generation = 0, Population = 42.
0---000-0-
--------00
0-000--00-
----0---0-
---0--00-0
0-0--0-0-0
-0-----0-0
0--0---0-0
0-00---000
0---0-00-0

Generation = 1, Population = 49.
-0-01-1-1-
--00-00-11
--1--0011-
0-0010001-
0-----1-01
-0--0-0---
0--0-00---
1--10-0-0-
--1----1-1
100---1-01

Generation = 2, Population = 54.
0-0-*0*-*-
----0-10**
00-0-1-**-
1----1-1*-
1-00---0-*
0-0--0-000
1-01-1100-
*0--1010--
--*-0-0--*
*--0-0-01-

Generation = 3, Population = 47.
----*-*0*-
-00-1--1.*
-1--0*0..-
--0-1*-*.-
---10-1--*
---001011-
-0-*0**---
*10--1---0
--*01-11-.
.0--0-11*-

Generation = 4, Population = 51.
-000.-*1*-
0-1---1*..
0*101.1**0
---0*.-*.0
----1-*0-.
-001-*--*-
-10.1..-00
**-11*100-
00.--0---.
.---1--**1

Generation = 5, Population = 48.
-111.0***0
1--010*..*
-.*1-.-..-
10--..0..1
-001*0*--.
0-1*-*--*-
-*-.*..-11
..0**.----
--*011---*
.0-0--1.**
